<svg xmlns="http://www.w3.org/2000/svg" viewBox="0 0 24 24">
    <path fill-rule="evenodd" d="M8.75 2v-.75h-1.5V3H2v18h20V3h-5.25V1.25h-1.5V3h-6.5V2ZM3.5 4.5h3.75v2.25h1.5V4.5h6.5v2.25h1.5V4.5h3.75v15h-17v-15ZM7 12.75h10v-1.5H7v1.5Z" clip-rule="evenodd"/>
</svg>
