<svg xmlns="http://www.w3.org/2000/svg" viewBox="0 0 24 24">
    <path fill-rule="evenodd" d="M9.116 4h-.448l-.144.425-.674 1.99H4v1.25h1.425l.66 11.218.034.588H17.02l.035-.588.66-11.217h1.424v-1.25h-3.854l-.674-1.991L14.468 4H9.116Zm4.85 2.416L13.57 5.25H9.564L9.17 6.416h4.796ZM7.298 18.22 6.677 7.666h9.785l-.62 10.555H7.297Zm2.25-3.014V10.68h1.25v4.527h-1.25Zm2.79-4.527v4.527h1.25V10.68h-1.25Z" clip-rule="evenodd"/>
</svg>
