<svg xmlns="http://www.w3.org/2000/svg" viewBox="0 0 24 24">
    <path fill-rule="evenodd" d="M9.625 8a2.375 2.375 0 1 1 4.75 0 2.375 2.375 0 0 1-4.75 0ZM12 4.375a3.625 3.625 0 1 0 0 7.25 3.625 3.625 0 0 0 0-7.25Zm-1.155 8.467a5.12 5.12 0 0 0-5.12 5.12v1.663h12.55v-1.663a5.12 5.12 0 0 0-5.12-5.12h-2.31Zm-3.87 5.12a3.87 3.87 0 0 1 3.87-3.87h2.31a3.87 3.87 0 0 1 3.87 3.87v.413H6.974v-.413Z" clip-rule="evenodd"/>
</svg>
