<svg xmlns="http://www.w3.org/2000/svg" viewBox="0 0 24 24">
    <path fill-rule="evenodd" d="M15.527 5.503v3.945a6.503 6.503 0 0 1 4.737 3.137V7.081l-4.737-1.578Zm-1.5 3.919V5.498L9.551 6.991v4.889a6.491 6.491 0 0 1 4.476-2.458ZM3.237 5.434 8.05 7.038v10.986l-4.815-1.605V5.434ZM19.985 15.89a5.2 5.2 0 1 1-10.4 0 5.2 5.2 0 0 1 10.4 0Zm-4.45-3.496v3.809l-.223.22-1.528 1.51-1.054-1.068 1.306-1.288v-3.183h1.5Z" clip-rule="evenodd"/>
</svg>
