<svg xmlns="http://www.w3.org/2000/svg" viewBox="0 0 24 24">
    <path fill-rule="evenodd" d="M18.921 6.828A2.277 2.277 0 0 1 19.25 8a2.24 2.24 0 0 1-1.059 1.91 2.244 2.244 0 0 1-1.191.34v1.5a3.752 3.752 0 0 0 .593-7.453 3.733 3.733 0 0 0-2.036.242l.577 1.384A2.25 2.25 0 0 1 17 5.749v.001a2.262 2.262 0 0 1 1.921 1.078ZM9.65 5.75a2.25 2.25 0 1 0 0 4.5 2.25 2.25 0 0 0 0-4.5ZM5.9 8a3.75 3.75 0 1 1 7.5 0 3.75 3.75 0 0 1-7.5 0Zm-2.65 9.962a5.245 5.245 0 0 1 5.245-5.245h2.31a5.245 5.245 0 0 1 5.245 5.245v1.788H3.25v-1.788Zm5.245-3.745a3.745 3.745 0 0 0-3.745 3.745v.288h9.8v-.288a3.745 3.745 0 0 0-3.745-3.745h-2.31Zm14.255 3.25a4.75 4.75 0 0 0-4.75-4.75v1.5a3.25 3.25 0 0 1 3.25 3.25v.783H18v1.5h4.75v-2.283Z" clip-rule="evenodd"/>
</svg>
