<svg xmlns="http://www.w3.org/2000/svg" viewBox="0 0 24 24">
    <path fill-rule="evenodd" d="M2.564 6.774V7.5H5.48v-.726h-.888V3.312h-1.38L2.21 4.632l.576.45.852-1.116h.054v2.808H2.564ZM21 4.75H9v1.5h12v-1.5Zm0 6.5H9v1.5h12v-1.5Zm-12 6.5h12v1.5H9v-1.5ZM5.306 14H2.342v-.822l1.29-1.104c.116-.1.214-.19.294-.27.08-.084.144-.164.192-.24a.812.812 0 0 0 .108-.234.813.813 0 0 0 .036-.246V11a.44.44 0 0 0-.174-.36.66.66 0 0 0-.378-.12c-.1 0-.188.016-.264.048a.633.633 0 0 0-.192.132.708.708 0 0 0-.132.186.98.98 0 0 0-.084.222l-.786-.3c.048-.144.114-.28.198-.408.084-.132.188-.246.312-.342.128-.1.278-.178.45-.234.172-.056.366-.084.582-.084.228 0 .43.032.606.096s.324.152.444.264c.124.112.218.246.282.402.064.152.096.318.096.498s-.03.344-.09.492c-.06.148-.142.288-.246.42-.1.128-.218.25-.354.366a22.26 22.26 0 0 1-.426.354l-.78.612h1.98V14Zm-1.248 3.842c-.1.084-.262.126-.486.126h-.39v.75h.378c.228 0 .406.044.534.132a.424.424 0 0 1 .198.384v.036a.536.536 0 0 1-.174.42c-.112.1-.27.15-.474.15-.228 0-.41-.054-.546-.162a1.443 1.443 0 0 1-.336-.426l-.666.516a1.69 1.69 0 0 0 .552.564c.124.072.268.13.432.174.164.044.352.066.564.066.236 0 .452-.028.648-.084.196-.06.364-.144.504-.252.14-.108.248-.238.324-.39.076-.152.114-.322.114-.51 0-.144-.022-.272-.066-.384a.884.884 0 0 0-.186-.3.886.886 0 0 0-.276-.204 1.196 1.196 0 0 0-.342-.12v-.036a.936.936 0 0 0 .798-.942.96.96 0 0 0-.108-.456.957.957 0 0 0-.3-.348 1.345 1.345 0 0 0-.468-.228 2.182 2.182 0 0 0-.606-.078c-.18 0-.342.018-.486.054-.144.032-.274.08-.39.144-.116.06-.22.134-.312.222a2.182 2.182 0 0 0-.258.282l.564.528c.104-.16.23-.282.378-.366a.912.912 0 0 1 .474-.132c.18 0 .318.046.414.138.1.092.15.214.15.366v.042a.409.409 0 0 1-.156.324Z" clip-rule="evenodd"/>
    <path d="M2.564 7.5h-.05v.05h.05V7.5Zm0-.726v-.05h-.05v.05h.05ZM5.48 7.5v.05h.05V7.5h-.05Zm0-.726h.05v-.05h-.05v.05Zm-.888 0h-.05v.05h.05v-.05Zm0-3.462h.05v-.05h-.05v.05Zm-1.38 0v-.05h-.025l-.015.02.04.03ZM2.21 4.632l-.04-.03-.03.04.039.03.03-.04Zm.576.45-.031.04.04.03.03-.04-.04-.03Zm.852-1.116v-.05h-.025l-.015.02.04.03Zm.054 0h.05v-.05h-.05v.05Zm0 2.808v.05h.05v-.05h-.05ZM9 4.75V4.7h-.05v.05H9Zm12 0h.05V4.7H21v.05ZM9 6.25h-.05v.05H9v-.05Zm12 0v.05h.05v-.05H21Zm-12 5v-.05h-.05v.05H9Zm12 0h.05v-.05H21v.05Zm-12 1.5h-.05v.05H9v-.05Zm12 0v.05h.05v-.05H21Zm0 5h.05v-.05H21v.05Zm-12 0v-.05h-.05v.05H9Zm12 1.5v.05h.05v-.05H21Zm-12 0h-.05v.05H9v-.05ZM2.342 14h-.05v.05h.05V14Zm2.964 0v.05h.05V14h-.05Zm-2.964-.822-.033-.038-.017.015v.023h.05Zm1.29-1.104.032.038-.032-.038Zm.294-.27.035.035-.035-.035Zm.192-.24-.042-.027.042.027Zm.108-.234-.048-.015v.002l.048.013Zm-.012-.54-.044.024.044-.024Zm-.306-.24-.015.048.015-.048Zm-.462.018-.02-.046.02.046Zm-.192.132-.036-.035.036.035Zm-.132.186.044.023-.044-.023Zm-.084.222-.018.047.053.02.013-.055-.048-.012Zm-.786-.3-.048-.016-.015.046.045.017.018-.047Zm.198-.408.042.027-.042-.027Zm.312-.342.03.04-.03-.04Zm.45-.234.015.048-.015-.048Zm1.632.276-.034.037.034-.037Zm.282.402-.047.019.047-.019Zm-.24 1.41-.04-.03.04.03Zm-.354.366.032.038-.032-.038Zm-.426.354.03.04.001-.001-.031-.039Zm-.78.612-.031-.04-.114.09h.145v-.05Zm1.98 0h.05v-.05h-.05v.05Zm-1.248 4.598.032.038-.032-.038Zm-.876.126v-.05h-.05v.05h.05Zm0 .75h-.05v.05h.05v-.05Zm.912.132-.029.041.002.001.027-.042Zm.024.84.033.037-.033-.037Zm-1.02-.012-.033.038.002.001.03-.039Zm-.336-.426.044-.024-.028-.052-.047.037.03.039Zm-.666.516-.03-.04-.037.028.024.039.043-.027Zm.234.306-.037.034.037-.034Zm.318.258-.027.042.002.001.025-.043Zm.432.174-.013.048.013-.048Zm1.212-.018.013.048h.001l-.014-.048Zm.504-.252.03.04-.03-.04Zm.324-.39.044.022-.044-.022Zm.048-.894-.047.018.047-.018Zm-.186-.3-.037.034.037-.034Zm-.276-.204-.024.044.002.001.022-.045Zm-.342-.12h-.05v.041l.04.008.01-.049Zm0-.036-.01-.05-.04.008v.042h.05Zm.306-.102.022.045.002-.001-.024-.044Zm.252-.198-.037-.034.037.034Zm.174-.282-.047-.019v.002l.047.017Zm-.042-.816-.045.022v.001l.045-.023Zm-.3-.348-.031.04h.001l.03-.04Zm-.468-.228-.014.048.014-.048Zm-1.092-.024.01.049h.002l-.012-.049Zm-.39.144.023.044-.023-.044Zm-.312.222.033.037h.001l-.034-.037Zm-.258.282-.04-.03-.028.036.034.03.034-.036Zm.564.528-.034.037.043.04.033-.05-.042-.027Zm.378-.366.024.044.001-.001-.025-.043Zm.888.006-.035.036.035-.036ZM2.614 7.5v-.726h-.1V7.5h.1Zm2.866-.05H2.564v.1H5.48v-.1Zm-.05-.676V7.5h.1v-.726h-.1Zm-.838.05h.888v-.1h-.888v.1Zm-.05-3.512v3.462h.1V3.312h-.1Zm-1.33.05h1.38v-.1h-1.38v.1Zm-.962 1.3 1.002-1.32-.08-.06-1.002 1.32.08.06Zm.566.38-.576-.45-.061.08.576.45.061-.08Zm.782-1.106-.852 1.116.08.06.851-1.116-.079-.06Zm.094-.02h-.054v.1h.054v-.1Zm.05 2.858V3.966h-.1v2.808h.1Zm-1.178.05h1.128v-.1H2.564v.1ZM9 4.8h12v-.1H9v.1Zm.05 1.45v-1.5h-.1v1.5h.1ZM21 6.2H9v.1h12v-.1Zm-.05-1.45v1.5h.1v-1.5h-.1ZM9 11.3h12v-.1H9v.1Zm.05 1.45v-1.5h-.1v1.5h.1ZM21 12.7H9v.1h12v-.1Zm-.05-1.45v1.5h.1v-1.5h-.1ZM21 17.7H9v.1h12v-.1Zm.05 1.55v-1.5h-.1v1.5h.1ZM9 19.3h12v-.1H9v.1Zm-.05-1.55v1.5h.1v-1.5h-.1Zm-6.608-3.7h2.964v-.1H2.342v.1Zm-.05-.872V14h.1v-.822h-.1Zm1.307-1.142L2.31 13.14l.065.076 1.29-1.104-.065-.076Zm.291-.267a5.462 5.462 0 0 1-.29.267l.064.076c.117-.1.216-.191.297-.273l-.07-.07Zm.185-.232c-.045.073-.107.15-.186.232l.073.07c.082-.086.148-.169.198-.248l-.085-.054Zm.102-.22a.763.763 0 0 1-.101.22l.084.054a.862.862 0 0 0 .114-.248l-.097-.026Zm.035-.233c0 .083-.012.16-.034.231l.095.03a.863.863 0 0 0 .039-.261h-.1Zm0-.084v.084h.1V11h-.1Zm-.042-.187a.39.39 0 0 1 .042.187h.1a.49.49 0 0 0-.054-.233l-.088.046Zm-.113-.133a.41.41 0 0 1 .113.133l.088-.046a.509.509 0 0 0-.14-.167l-.06.08Zm-.163-.082a.494.494 0 0 1 .163.082l.061-.08a.593.593 0 0 0-.196-.098l-.028.096Zm-.184-.028c.063 0 .124.01.183.028l.03-.096a.711.711 0 0 0-.213-.032v.1Zm-.245.044a.627.627 0 0 1 .245-.044v-.1a.73.73 0 0 0-.284.052l.04.092Zm-.176.121a.583.583 0 0 1 .177-.121l-.04-.092a.681.681 0 0 0-.208.143l.071.07Zm-.123.173a.657.657 0 0 1 .123-.173l-.07-.07a.757.757 0 0 0-.142.199l.09.044Zm-.08.212a.932.932 0 0 1 .08-.21l-.088-.047a1.03 1.03 0 0 0-.089.233l.097.024Zm-.852-.265.786.3.036-.094-.786-.3-.036.094Zm.174-.482a1.8 1.8 0 0 0-.204.42l.095.03c.047-.139.11-.271.193-.396l-.084-.054Zm.323-.354a1.38 1.38 0 0 0-.323.354l.084.054c.08-.127.18-.237.3-.33l-.06-.079Zm.465-.243a1.505 1.505 0 0 0-.465.243l.061.078a1.4 1.4 0 0 1 .435-.225l-.03-.096Zm.598-.086c-.22 0-.42.029-.598.086l.031.096a1.8 1.8 0 0 1 .567-.082v-.1Zm.623.099a1.817 1.817 0 0 0-.623-.099v.1c.223 0 .42.031.589.093l.034-.094Zm.46.274a1.334 1.334 0 0 0-.46-.274l-.034.094c.17.062.312.147.427.254l.068-.074Zm.295.42a1.145 1.145 0 0 0-.295-.42l-.067.074c.119.107.208.235.27.384l.092-.038Zm.1.517a1.32 1.32 0 0 0-.1-.517l-.092.038c.06.146.092.305.092.479h.1Zm-.094.51c.063-.154.094-.324.094-.51h-.1c0 .174-.03.332-.087.473l.093.038Zm-.253.433a1.79 1.79 0 0 0 .253-.432l-.093-.038c-.058.144-.137.28-.239.408l.079.062Zm-.36.373c.137-.118.258-.242.36-.373l-.079-.062a2.485 2.485 0 0 1-.347.359l.065.076Zm-.428.355c.148-.12.29-.239.427-.355L4.5 12.24c-.135.116-.277.233-.425.353l.063.078Zm-.78.612.78-.612-.062-.078-.78.612.062.078Zm1.949-.089h-1.98v.1h1.98v-.1Zm.05.806v-.756h-.1V14h.1Zm-1.784 4.018c.228 0 .404-.042.518-.138l-.064-.076c-.087.072-.234.114-.454.114v.1Zm-.39 0h.39v-.1h-.39v.1Zm.05.7v-.75h-.1v.75h.1Zm.328-.05h-.378v.1h.378v-.1Zm.562.14c-.14-.095-.329-.14-.562-.14v.1c.222 0 .389.043.505.123l.057-.082Zm.22.426a.474.474 0 0 0-.221-.426l-.054.084c.116.074.175.185.175.342h.1Zm0 .036v-.036h-.1v.036h.1Zm-.19.457a.586.586 0 0 0 .19-.457h-.1c0 .164-.054.29-.158.383l.067.074Zm-.508.163c.212 0 .383-.052.507-.163l-.067-.074c-.1.089-.244.137-.44.137v.1Zm-.577-.173c.147.117.341.173.577.173v-.1c-.22 0-.39-.052-.515-.151l-.062.078Zm-.35-.441c.095.176.211.324.348.44l.065-.076a1.393 1.393 0 0 1-.324-.412l-.088.048Zm-.59.532.665-.517-.06-.079-.667.517.061.079Zm.24.232a2.087 2.087 0 0 1-.229-.299l-.085.054c.07.11.15.215.24.313l.074-.068Zm.307.25a1.641 1.641 0 0 1-.308-.25l-.072.069c.095.099.204.187.327.265l.053-.084Zm.419.168c-.16-.043-.3-.1-.42-.17l-.05.087c.128.075.276.134.444.18l.026-.097Zm.55.064c-.208 0-.391-.022-.55-.064l-.026.096c.169.046.361.068.577.068v-.1Zm.635-.082c-.19.054-.402.082-.634.082v.1c.24 0 .46-.029.661-.086l-.027-.096Zm.487-.244a1.517 1.517 0 0 1-.488.244l.03.096c.2-.062.374-.148.52-.26l-.062-.08Zm.31-.372a1.074 1.074 0 0 1-.31.372l.061.08c.146-.113.259-.249.338-.408l-.089-.044Zm.109-.488c0 .181-.037.343-.109.488l.09.044c.08-.16.119-.337.119-.532h-.1Zm-.063-.366a.994.994 0 0 1 .063.366h.1c0-.149-.023-.283-.07-.402l-.093.036Zm-.176-.284a.833.833 0 0 1 .176.284l.093-.036a.934.934 0 0 0-.196-.317l-.072.07Zm-.261-.193c.103.05.19.114.26.193l.075-.067a.934.934 0 0 0-.292-.216l-.043.09Zm-.33-.116c.12.023.229.062.328.115l.047-.088a1.245 1.245 0 0 0-.356-.125l-.019.098Zm-.04-.085v.036h.1v-.036h-.1Zm.333-.147a1.08 1.08 0 0 1-.292.098l.018.098c.112-.02.219-.056.32-.106l-.046-.09Zm.238-.186a.885.885 0 0 1-.24.187l.049.088a.996.996 0 0 0 .265-.209l-.074-.066Zm.164-.266a.766.766 0 0 1-.164.265l.073.068a.866.866 0 0 0 .185-.299l-.094-.034Zm.063-.343c0 .126-.021.24-.063.341l.093.038a.996.996 0 0 0 .07-.379h-.1Zm-.102-.433a.91.91 0 0 1 .102.433h.1a1.01 1.01 0 0 0-.114-.48l-.088.047Zm-.286-.33c.126.091.22.201.285.33l.09-.045a1.006 1.006 0 0 0-.316-.366l-.059.08Zm-.452-.22c.179.05.329.123.45.218l.062-.078a1.396 1.396 0 0 0-.485-.237l-.027.096Zm-.592-.077c.22 0 .417.026.592.076l.028-.096a2.23 2.23 0 0 0-.62-.08v.1Zm-.474.053a1.96 1.96 0 0 1 .474-.053v-.1c-.184 0-.35.018-.498.055l.024.098Zm-.378.139c.111-.062.237-.108.377-.14l-.022-.097a1.508 1.508 0 0 0-.403.15l.048.087Zm-.302.214a1.29 1.29 0 0 1 .3-.214l-.045-.088c-.12.062-.228.139-.324.23l.07.072Zm-.253.276c.079-.101.163-.193.252-.275l-.067-.074a2.233 2.233 0 0 0-.264.288l.08.061Zm.559.461-.564-.527-.068.073.564.527.068-.073Zm.319-.372a1.148 1.148 0 0 0-.395.382l.084.054c.1-.154.22-.27.36-.35l-.049-.086Zm.499-.139a.963.963 0 0 0-.5.139l.051.086a.862.862 0 0 1 .449-.125v-.1Zm.448.152c-.108-.104-.26-.152-.448-.152v.1c.171 0 .295.044.38.124l.068-.072Zm.166.402c0-.164-.055-.3-.166-.403l-.068.074c.088.081.134.19.134.329h.1Zm0 .042v-.042h-.1v.042h.1Zm-.174.362a.459.459 0 0 0 .174-.362h-.1a.359.359 0 0 1-.139.286l.065.076Z"/>
</svg>
