<svg xmlns="http://www.w3.org/2000/svg" viewBox="0 0 24 24">
    <path d="M11.412 8.736c.72 0 1.247.24 1.583.72.337.464.505 1.088.505 1.872 0 .448-.049.992-.145 1.632-.08.624-.184 1.288-.312 1.992a53.082 53.082 0 0 0-.287 2.064c-.08.672-.12 1.28-.12 1.824 0 .304.048.528.144.672a.547.547 0 0 0 .456.216c.255 0 .52-.16.791-.48.289-.336.545-.904.769-1.704l.888.216a6.66 6.66 0 0 1-.336 1.128c-.16.4-.377.784-.649 1.152a3.534 3.534 0 0 1-.935.888 2.397 2.397 0 0 1-1.272.336c-.785 0-1.353-.208-1.705-.624-.336-.416-.504-1.008-.504-1.776 0-.624.04-1.264.12-1.92.096-.656.2-1.312.313-1.968.112-.656.216-1.296.312-1.92.095-.64.143-1.256.143-1.848 0-.224-.047-.432-.143-.624-.08-.208-.225-.312-.433-.312-.24 0-.504.168-.792.504-.288.32-.544.88-.768 1.68l-.888-.216c.064-.304.176-.648.336-1.032.16-.4.368-.784.624-1.152.272-.384.592-.696.96-.936.384-.256.832-.384 1.345-.384Zm1.175-5.472c.433 0 .777.152 1.033.456.272.288.408.664.408 1.128-.017.448-.168.816-.457 1.104a1.408 1.408 0 0 1-1.031.432c-.416 0-.768-.144-1.056-.432-.273-.288-.4-.656-.384-1.104 0-.464.152-.84.456-1.128.304-.304.648-.456 1.032-.456Z"/>
</svg>
