<svg xmlns="http://www.w3.org/2000/svg" viewBox="0 0 16 16">
    <path fill-rule="evenodd" d="m4.744 10.614.58-.476L8 7.94l2.676 2.197.58.476.952-1.16-.58-.476L8.476 6.39 8 6l-.476.39-3.152 2.588-.58.475.952 1.16Z" clip-rule="evenodd"/>
</svg>
